module gitlab.com/causevest/noise

go 1.13

require (
	github.com/VictoriaMetrics/fastcache v1.5.7
	github.com/oasisprotocol/curve25519-voi v0.0.0-20210505121811-294cf0fbfb43
	github.com/spf13/pflag v1.0.5
	github.com/stretchr/testify v1.4.0
	go.uber.org/atomic v1.5.1
	go.uber.org/goleak v1.0.0
	go.uber.org/zap v1.13.0
	golang.org/x/crypto v0.0.0-20201221181555-eec23a3978ad
	golang.org/x/lint v0.0.0-20191125180803-fdd1cda4f05f // indirect
	golang.org/x/tools v0.0.0-20200129045341-207d3de1faaf // indirect
)
